{
  "metadata": {
    "name": "bankfull.csv_flow",
    "description": "",
    "asset_type": "data_flow",
    "origin_country": "us",
    "asset_category": "USER",
    "created_at": "2024-04-13T05:42:15Z",
    "created": 1712986935767,
    "asset_id": "data_flow.bankfullcsvflow",
    "asset_attributes": [
      "data_flow"
    ]
  },
  "entity": {
    "data_flow": {
      "_entity_only": false
    }
  },
  "attachments": [
    {
      "asset_type": "data_flow",
      "name": "data_flow",
      "description": "",
      "mime": "application/json",
      "data_partitions": 0,
      "test_doc": 0,
      "private_url": true,
      "object_key": "data_flow/bankfull.csv_flow",
      "object_key_is_read_only": false,
      "is_partitioned": false,
      "created_at": "2024-04-13T05:42:15Z",
      "id": "6176a2b3-189a-465b-8b40-3bc31a0906d6",
      "is_managed": false,
      "is_referenced": true,
      "is_remote": false
    }
  ]
}